{"name":"Usuario registrado","id":"consumir-recurso-regres;usuario-registrado","testSteps":[{"number":1,"description":"Given que el administrador necesita consultar que usuarios se encuentran registrados","duration":8234,"startTime":"2022-03-27T21:09:36.819-05:00[America/Bogota]","result":"SUCCESS","precondition":false,"level":0,"children":[{"number":2,"description":"Mancipe get users taks","duration":7500,"startTime":"2022-03-27T21:09:37.541-05:00[America/Bogota]","result":"SUCCESS","precondition":false,"level":1,"children":[{"number":3,"description":"Mancipe executes a GET on the resource /users?page\u003d2","duration":7307,"startTime":"2022-03-27T21:09:37.720-05:00[America/Bogota]","result":"SUCCESS","precondition":false,"level":2,"children":[{"number":4,"description":"GET https://reqres.in/api/users?page\u003d2\r","duration":2,"startTime":"2022-03-27T21:09:45.016-05:00[America/Bogota]","result":"SUCCESS","restQuery":{"method":"GET","path":"https://reqres.in/api/users?page\u003d2\r","content":"\r","contentType":"application/json","requestHeaders":"header1\u003dvalue1\r\n\t\t\t\tAccept\u003d*/*\r\n\t\t\t\tContent-Type\u003dapplication/json; charset\u003dUTF-8\r","requestCookies":"\r","responseHeaders":"Date: Mon, 28 Mar 2022 02:09:46 GMT\r\nContent-Type: application/json; charset\u003dutf-8\r\nTransfer-Encoding: chunked\r\nConnection: keep-alive\r\nX-Powered-By: Express\r\nAccess-Control-Allow-Origin: *\r\nEtag: W/\"406-ut0vzoCuidvyMf8arZpMpJ6ZRDw\"\r\nVia: 1.1 vegur\r\nCache-Control: max-age\u003d14400\r\nCF-Cache-Status: HIT\r\nAge: 2188\r\nExpect-CT: max-age\u003d604800, report-uri\u003d\"https://report-uri.cloudflare.com/cdn-cgi/beacon/expect-ct\"\r\nReport-To: {\"endpoints\":[{\"url\":\"https:\\/\\/a.nel.cloudflare.com\\/report\\/v3?s\u003d%2FMLVn6TdL0%2F5%2B0oTINHjqejOxjkf0weFnH2HOpDoifUR7fc3jy0%2BUcW%2Bf4v36UentPkSeC1BOLhxAeCKxU2bFWJ17JR8BcG6RZzYxth5bLqqUXx6l3wDS27d%2F0c%3D\"}],\"group\":\"cf-nel\",\"max_age\":604800}\r\nNEL: {\"success_fraction\":0,\"report_to\":\"cf-nel\",\"max_age\":604800}\r\nVary: Accept-Encoding\r\nServer: cloudflare\r\nCF-RAY: 6f2cd35b992048f9-MDE\r\nContent-Encoding: gzip\r\nalt-svc: h3\u003d\":443\"; ma\u003d86400, h3-29\u003d\":443\"; ma\u003d86400\r","responseCookies":"\r","responseBody":"{\n    \"page\": 2,\n    \"per_page\": 6,\n    \"total\": 12,\n    \"total_pages\": 2,\n    \"data\": [\n        {\n            \"id\": 7,\n            \"email\": \"michael.lawson@reqres.in\",\n            \"first_name\": \"Michael\",\n            \"last_name\": \"Lawson\",\n            \"avatar\": \"https://reqres.in/img/faces/7-image.jpg\"\n        },\n        {\n            \"id\": 8,\n            \"email\": \"lindsay.ferguson@reqres.in\",\n            \"first_name\": \"Lindsay\",\n            \"last_name\": \"Ferguson\",\n            \"avatar\": \"https://reqres.in/img/faces/8-image.jpg\"\n        },\n        {\n            \"id\": 9,\n            \"email\": \"tobias.funke@reqres.in\",\n            \"first_name\": \"Tobias\",\n            \"last_name\": \"Funke\",\n            \"avatar\": \"https://reqres.in/img/faces/9-image.jpg\"\n        },\n        {\n            \"id\": 10,\n            \"email\": \"byron.fields@reqres.in\",\n            \"first_name\": \"Byron\",\n            \"last_name\": \"Fields\",\n            \"avatar\": \"https://reqres.in/img/faces/10-image.jpg\"\n        },\n        {\n            \"id\": 11,\n            \"email\": \"george.edwards@reqres.in\",\n            \"first_name\": \"George\",\n            \"last_name\": \"Edwards\",\n            \"avatar\": \"https://reqres.in/img/faces/11-image.jpg\"\n        },\n        {\n            \"id\": 12,\n            \"email\": \"rachel.howell@reqres.in\",\n            \"first_name\": \"Rachel\",\n            \"last_name\": \"Howell\",\n            \"avatar\": \"https://reqres.in/img/faces/12-image.jpg\"\n        }\n    ],\n    \"support\": {\n        \"url\": \"https://reqres.in/#support-heading\",\n        \"text\": \"To keep ReqRes free, contributions towards server costs are appreciated!\"\n    }\n}","statusCode":200},"precondition":false,"level":3}]}]}]},{"number":5,"description":"When se valida el código de respuesta exitoso","duration":306,"startTime":"2022-03-27T21:09:45.055-05:00[America/Bogota]","result":"SUCCESS","precondition":false,"level":0,"children":[{"number":6,"description":"Then El c\u0026oacute;digo de respuesta should be (200)","duration":5,"startTime":"2022-03-27T21:09:45.353-05:00[America/Bogota]","result":"SUCCESS","precondition":false,"level":1}]},{"number":7,"description":"Then se validara que en los datos de retorno se encuentre el email del usuario \"michael.lawson@reqres.in\"","duration":748,"startTime":"2022-03-27T21:09:45.362-05:00[America/Bogota]","result":"SUCCESS","precondition":false,"level":0,"children":[{"number":8,"description":"Then La respuesta should be not null","duration":1,"startTime":"2022-03-27T21:09:46.099-05:00[America/Bogota]","result":"SUCCESS","precondition":false,"level":1},{"number":9,"description":"Then Nombre del correo should be \u0027michael.lawson@reqres.in\u0027","duration":0,"startTime":"2022-03-27T21:09:46.104-05:00[America/Bogota]","result":"SUCCESS","precondition":false,"level":1}]}],"userStory":{"id":"consumir-recurso-regres","storyName":"Consumir recurso Regres","path":"file:///C:/Users/HP/IdeaProjects/PruebaSerenityRestDos/src/test/resources/features/listUsers.feature","narrative":"  Como un administrador verificado en sistema\n  necesito validar la lista de usuarios disponibles en la página\n  para poder  verificar cuales son los registrados","type":"feature"},"featureTag":{"name":"Features/Consumir recurso Regres","type":"feature","displayName":"Features/Consumir recurso Regres"},"title":"Usuario registrado","tags":[{"name":"Consumir recurso Regres","type":"feature","displayName":"Consumir recurso Regres"}],"startTime":"2022-03-27T21:09:36.393-05:00[America/Bogota]","duration":9722,"projectKey":"","isManualTestingUpToDate":false,"manual":false,"testSource":"Cucumber","actors":[{"name":"Mancipe","can":["call an API at https://reqres.in/api"]}],"result":"SUCCESS"}